Introducción al análisis de datos biológicos con R
…
```r
rural <- sample(15:30, 12)
urbano <- sample(30:100, 12)
periurbano <- sample(15:70, 12)
data <- data.frame(rural, urbano, periurbano, fecha) %>% 
  pivot_longer(-fecha, 
               names_to = "uso_tierra", 
               values_to = "casos")
data
```

```
## # A tibble: 36 x 3
##    fecha      uso_tierra casos
##    <date>     <chr>      <int>
##  1 2018-04-01 rural         16
##  2 2018-04-01 urbano        78
##  3 2018-04-01 periurbano    20
##  4 2016-08-01 rural         23
##  5 2016-08-01 urbano        50
##  6 2016-08-01 periurbano    22
##  7 2019-10-01 rural         20
##  8 2019-10-01 urbano        83
##  9 2019-10-01 periurbano    41
## 10 2017-08-01 rural         24
## # ... with 26 more rows
```
…
