Programación con R
…
---
## Importar datos a R

### readxl: **.xlsx**

**Ejemplo:**

```r
datos_xlsx <- read_xlsx("datos.xlsx")
datos_xlsx
```

```
## # A tibble: 24 x 6
##       ID localidad                    ano zona     var_respuesta temperatura
##    <dbl> <chr>                      <dbl> <chr>            <dbl>       <dbl>
##  1     1 Puerto Iguazú - Misiones    2001 agrícola            NA        25  
##  2     2 Puerto Liberdad - Misiones  2001 agrícola             2        26.7
##  3     3 San Pedro - Misiones        2001 agrícola             5        24.2
##  4     4 Tareiri - Misiones          2001 agrícola             4        26.2
##  5     5 Puerto Iguazú - Misiones    2005 agrícola             6        27  
##  6     6 Puerto Liberdad - Misiones  2005 agrícola            NA        25.5
##  7     7 San Pedro - Misiones        2005 agrícola             7        26  
##  8     8 Tareiri - Misiones          2005 agrícola             9        26.5
##  9     9 Puerto Iguazú - Misiones    2001 bosque              30        20  
## 10    10 Puerto Liberdad - Misiones  2001 bosque              52        21  
## # ... with 14 more rows
```
…
### **select()**

Seleccionemos las columnas "localidad" y "año" de la tabla "datos_xlsx".

```r
datos_xlsx %>%
  select(localidad, ano)
```

```
## # A tibble: 24 x 2
##    localidad                    ano
##    <chr>                      <dbl>
##  1 Puerto Iguazú - Misiones    2001
##  2 Puerto Liberdad - Misiones  2001
##  3 San Pedro - Misiones        2001
##  4 Tareiri - Misiones          2001
##  5 Puerto Iguazú - Misiones    2005
##  6 Puerto Liberdad - Misiones  2005
##  7 San Pedro - Misiones        2005
##  8 Tareiri - Misiones          2005
##  9 Puerto Iguazú - Misiones    2001
## 10 Puerto Liberdad - Misiones  2001
## # ... with 14 more rows
```

---
## dplyr 

### **select()**

Seleccione todos los datos excepto "ID" y "temperatura".

```r
datos_xlsx %>%
  select(-ID, -temperatura)
```

```
## # A tibble: 24 x 4
##    localidad                    ano zona     var_respuesta
##    <chr>                      <dbl> <chr>            <dbl>
##  1 Puerto Iguazú - Misiones    2001 agrícola            NA
##  2 Puerto Liberdad - Misiones  2001 agrícola             2
##  3 San Pedro - Misiones        2001 agrícola             5
##  4 Tareiri - Misiones          2001 agrícola             4
##  5 Puerto Iguazú - Misiones    2005 agrícola             6
##  6 Puerto Liberdad - Misiones  2005 agrícola            NA
##  7 San Pedro - Misiones        2005 agrícola             7
##  8 Tareiri - Misiones          2005 agrícola             9
##  9 Puerto Iguazú - Misiones    2001 bosque              30
## 10 Puerto Liberdad - Misiones  2001 bosque              52
## # ... with 14 more rows
```
…
---
## dplyr 

### **arrange()**

- En el siguiente ejemplo, ordenamos las líneas base en orden ascendente de "response_var".

```r
datos_xlsx %>%
  arrange(var_respuesta, desc(ano))
```

```
## # A tibble: 24 x 6
##       ID localidad                    ano zona     var_respuesta temperatura
##    <dbl> <chr>                      <dbl> <chr>            <dbl>       <dbl>
##  1     2 Puerto Liberdad - Misiones  2001 agrícola             2        26.7
##  2     4 Tareiri - Misiones          2001 agrícola             4        26.2
##  3     3 San Pedro - Misiones        2001 agrícola             5        24.2
##  4     5 Puerto Iguazú - Misiones    2005 agrícola             6        27  
##  5     7 San Pedro - Misiones        2005 agrícola             7        26  
##  6     8 Tareiri - Misiones          2005 agrícola             9        26.5
##  7    18 Puerto Liberdad - Misiones  2001 urbano              14        29.4
##  8    23 San Pedro - Misiones        2005 urbano              16        33  
##  9    19 San Pedro - Misiones        2001 urbano              16        32.4
## 10    24 Tareiri - Misiones          2005 urbano              18        33.6
## # ... with 14 more rows
```
…
---
## dplyr 

### **mutate()**

- Por ejemplo, digamos que descubrió un error en su tabla. Agregaste uno individuo más en la columna "var_respuesta" y ahora necesitas quitar ese valor.

```r
datos_xlsx %>%
  mutate(var_respuesta = var_respuesta - 1)
```

```
## # A tibble: 24 x 6
##       ID localidad                    ano zona     var_respuesta temperatura
##    <dbl> <chr>                      <dbl> <chr>            <dbl>       <dbl>
##  1     1 Puerto Iguazú - Misiones    2001 agrícola            NA        25  
##  2     2 Puerto Liberdad - Misiones  2001 agrícola             1        26.7
##  3     3 San Pedro - Misiones        2001 agrícola             4        24.2
##  4     4 Tareiri - Misiones          2001 agrícola             3        26.2
##  5     5 Puerto Iguazú - Misiones    2005 agrícola             5        27  
##  6     6 Puerto Liberdad - Misiones  2005 agrícola            NA        25.5
##  7     7 San Pedro - Misiones        2005 agrícola             6        26  
##  8     8 Tareiri - Misiones          2005 agrícola             8        26.5
##  9     9 Puerto Iguazú - Misiones    2001 bosque              29        20  
## 10    10 Puerto Liberdad - Misiones  2001 bosque              51        21  
## # ... with 14 more rows
```
…
