Programación con R
…
---
### Ejercicios 🤓

6 - De la tabla "`datos`" contaremos el número de casos de dengue por provincia.

- Seleccione las columnas en las que queremos los datos.

```r
datos %>% 
* dplyr::select(provincia_nombre, evento_nombre, cantidad_casos)
```

```
## # A tibble: 660 x 3
##    provincia_nombre evento_nombre cantidad_casos
##    <chr>            <chr>                  <dbl>
##  1 Buenos Aires     Dengue                     1
##  2 Buenos Aires     Dengue                     2
##  3 Buenos Aires     Dengue                     1
##  4 Buenos Aires     Dengue                     2
##  5 Buenos Aires     Dengue                     1
##  6 Buenos Aires     Dengue                     2
##  7 Buenos Aires     Dengue                     1
##  8 Buenos Aires     Dengue                     1
##  9 Buenos Aires     Dengue                     1
## 10 Buenos Aires     Dengue                     1
## # ... with 650 more rows
```
---
### Ejercicios 🤓

6 - De la tabla "`datos`" contaremos el número de casos de dengue por provincia.

- Agrupar datos por provincia y enfermedad.

```r
datos %>% 
  dplyr::select(provincia_nombre, evento_nombre, cantidad_casos) %>% 
* group_by(provincia_nombre, evento_nombre)
```

```
## # A tibble: 660 x 3
## # Groups:   provincia_nombre, evento_nombre [14]
##    provincia_nombre evento_nombre cantidad_casos
##    <chr>            <chr>                  <dbl>
##  1 Buenos Aires     Dengue                     1
##  2 Buenos Aires     Dengue                     2
##  3 Buenos Aires     Dengue                     1
##  4 Buenos Aires     Dengue                     2
##  5 Buenos Aires     Dengue                     1
##  6 Buenos Aires     Dengue                     2
##  7 Buenos Aires     Dengue                     1
##  8 Buenos Aires     Dengue                     1
##  9 Buenos Aires     Dengue                     1
## 10 Buenos Aires     Dengue                     1
## # ... with 650 more rows
```
…
